…
``` r
# view missing values grouped by diagnosis and gender
imr_og %>% 
  group_by(DiagnosisCategory, PatientGender) %>% 
  summarise(count = sum(is.na(AgeRange)))
```

    ## # A tibble: 65 × 3
    ## # Groups:   DiagnosisCategory [29]
    ##    DiagnosisCategory    PatientGender count
    ##    <chr>                <chr>         <int>
    ##  1 Autism Spectrum      Female            0
    ##  2 Autism Spectrum      Male              4
    ##  3 Autism Spectrum      Other             0
    ##  4 Blood Related Disord Female            0
    ##  5 Blood Related Disord Male              0
    ##  6 CNS/ Neuromusc Dis   Female            2
    ##  7 CNS/ Neuromusc Dis   Male              1
    ##  8 Cancer               Female            2
    ##  9 Cancer               Male              1
    ## 10 Cancer               Other             0
    ## # ℹ 55 more rows
…
median(imr_df$total_days)
```

    ## [1] 55

``` r
imr_df %>% 
  filter(agerange == '41 to 50',
         total_days %in% out_vals) %>% 
  arrange(desc(total_days))
```

    ## # A tibble: 154 × 15
    ##    reportyear diagnosiscategory    diagnosissubcategory treatmentcategory  
    ##         <dbl> <fct>                <fct>                <fct>              
    ##  1       2011 Trauma/ Injuries     Lasceration          Emergency/Urg Care 
    ##  2       2013 Cardiac/Circ Problem Stroke/ CVA          Diag/ MD Eval      
    ##  3       2014 Mental Disorder      Other                Mental Health      
    ##  4       2022 Mental Disorder      Anxiety              Mental Health      
    ##  5       2011 Morbid Obesity       Other                Gen Surg Proc      
    ##  6       2007 Cancer               Breast               Diag Imag & Screen 
    ##  7       2018 GU/ Kidney Disorder  Erectile Dysfunction Special Proc       
    ##  8       2011 CNS/ Neuromusc Dis   Brain Tumor          Neurosurgery Proc  
    ##  9       2017 Vision               Other                Reconstr/Plast Proc
    ## 10       2018 OB-GYN/ Pregnancy    Infertility          Ob-Gyn Proc        
    ## # ℹ 144 more rows
    ## # ℹ 11 more variables: treatmentsubcategory <fct>, determination <fct>,
    ## #   type <fct>, agerange <ord>, patientgender <fct>, imrtype <fct>,
    ## #   daystoreview <dbl>, daystoadopt <dbl>, total_days <dbl>,
    ## #   findings_cleaned <chr>, days_scaled <dbl[,1]>
…
``` r
imr_df %>% 
  group_by(reportyear) %>% 
  summarise(counts = n())
```

    ## # A tibble: 23 × 2
    ##    reportyear counts
    ##         <dbl>  <int>
    ##  1       2001     27
    ##  2       2002    638
    ##  3       2003    731
    ##  4       2004    787
    ##  5       2005    959
    ##  6       2006   1080
    ##  7       2007   1342
    ##  8       2008   1520
    ##  9       2009   1429
    ## 10       2010   1452
    ## # ℹ 13 more rows
…
